{"failedCount":0,"prefixedPath":"classpath:examples\/users\/getApi.feature","packageQualifiedName":"examples.users.getApi","loopIndex":-1,"relativePath":"examples\/users\/getApi.feature","scenarioResults":[{"sectionIndex":0,"stepResults":[{"result":{"nanos":681700,"startTime":1769529051856,"endTime":1769529051857,"millis":0.6817,"status":"passed"},"step":{"background":true,"line":4,"prefix":"*","index":0,"text":"url 'https:\/\/billpay-api.gauravkhurana-practice-api.workers.dev'"},"stepLog":"15:50:51.854 karate.env system property was: null \n"},{"result":{"nanos":563000,"startTime":1769529051857,"endTime":1769529051858,"millis":0.563,"status":"passed"},"step":{"background":true,"line":5,"prefix":"*","index":1,"text":"header Accept = 'application\/json'"}},{"result":{"nanos":617200,"startTime":1769529051857,"endTime":1769529051858,"millis":0.6172,"status":"passed"},"step":{"background":true,"line":6,"prefix":"*","index":2,"text":"header X-API-Key = 'demo-api-key-123'"}},{"result":{"nanos":695600,"startTime":1769529051858,"endTime":1769529051859,"millis":0.6956,"status":"passed"},"step":{"background":true,"line":7,"prefix":"*","index":3,"text":"header X-Request-Id = 'swagger-6qsdawl2i'"}},{"result":{"nanos":649800,"startTime":1769529051859,"endTime":1769529051860,"millis":0.6498,"status":"passed"},"step":{"line":9,"prefix":"Given","index":0,"text":"path '\/v1\/users'"}},{"result":{"nanos":1355100,"startTime":1769529051860,"endTime":1769529051861,"millis":1.3551,"status":"passed"},"step":{"line":10,"prefix":"And","index":1,"text":"params {page:1,limit:10}"}},{"result":{"nanos":794403100,"startTime":1769529051861,"endTime":1769529052655,"millis":794.4031,"status":"passed"},"step":{"line":11,"prefix":"When","index":2,"text":"method GET"},"stepLog":"15:50:51.869 request:\n1 > GET https:\/\/billpay-api.gauravkhurana-practice-api.workers.dev\/v1\/users?limit=10&page=1\n1 > Accept: application\/json\n1 > X-API-Key: demo-api-key-123\n1 > X-Request-Id: swagger-6qsdawl2i\n1 > Host: billpay-api.gauravkhurana-practice-api.workers.dev\n1 > Connection: Keep-Alive\n1 > User-Agent: Apache-HttpClient\/4.5.14 (Java\/17.0.12)\n1 > Accept-Encoding: gzip,deflate\n\n\n15:50:52.654 response time in milliseconds: 781\n1 < 200\n1 < Date: Tue, 27 Jan 2026 15:50:55 GMT\n1 < Content-Type: application\/json\n1 < Transfer-Encoding: chunked\n1 < Connection: keep-alive\n1 < Access-Control-Allow-Origin: *\n1 < Access-Control-Allow-Credentials: true\n1 < Access-Control-Allow-Headers: Content-Type, Authorization, X-API-Key, X-Request-Id, X-Client-Id, Accept, Accept-Language, Origin\n1 < Access-Control-Allow-Methods: GET, POST, PUT, PATCH, DELETE, HEAD, OPTIONS\n1 < Access-Control-Expose-Headers: X-Request-Id, X-RateLimit-Limit, X-RateLimit-Remaining, X-RateLimit-Reset, Retry-After, Content-Length\n1 < Access-Control-Max-Age: 86400\n1 < X-RateLimit-Limit: 100\n1 < X-RateLimit-Remaining: 97\n1 < X-RateLimit-Reset: 1769529114\n1 < X-Request-Id: swagger-6qsdawl2i\n1 < Vary: accept-encoding\n1 < Report-To: {\"group\":\"cf-nel\",\"max_age\":604800,\"endpoints\":[{\"url\":\"https:\/\/a.nel.cloudflare.com\/report\/v4?s=g69E8W%2BaakaPNKrneuVtExljCXEqLAUYCVimQyw3MvzGicb87Yww636Kz2esKFbF4naBU%2B2jYrD3lo63qaV5h9LjYZBlHQyowX0qbYDFLu4xCXcFMjI2Y0qGBPM%2BsWt3MsP9HvbRHgRZrUBVYPpMVyFh\"}]}\n1 < Nel: {\"report_to\":\"cf-nel\",\"success_fraction\":0.0,\"max_age\":604800}\n1 < Server: cloudflare\n1 < CF-RAY: 9c49688d98baedbd-LHR\n1 < alt-svc: h3=\":443\"; ma=86400\n{\"success\":true,\"data\":[{\"id\":\"user-37001823\",\"email\":\"Archana.Kumari@example.com\",\"phone\":null,\"firstName\":\"Archana\",\"lastName\":\"Kumari\",\"kycStatus\":\"pending\",\"createdAt\":\"2026-01-27T15:50:51.976Z\",\"updatedAt\":\"2026-01-27T15:50:51.976Z\"},{\"id\":\"user-d54947c3\",\"email\":\"Andy.wilson@example.com\",\"phone\":null,\"firstName\":\"Andy\",\"lastName\":\"wilson\",\"kycStatus\":\"pending\",\"createdAt\":\"2026-01-26T20:42:00.202Z\",\"updatedAt\":\"2026-01-26T20:42:00.202Z\"},{\"id\":\"user-365d4dbd\",\"email\":\"Peter.wilson@example.com\",\"phone\":null,\"firstName\":\"Peter\",\"lastName\":\"wilson\",\"kycStatus\":\"pending\",\"createdAt\":\"2026-01-26T20:37:36.430Z\",\"updatedAt\":\"2026-01-26T20:37:36.430Z\"},{\"id\":\"user-045cf70d\",\"email\":\"David.wilson@example.com\",\"phone\":null,\"firstName\":\"David\",\"lastName\":\"wilson\",\"kycStatus\":\"pending\",\"createdAt\":\"2026-01-26T20:33:28.350Z\",\"updatedAt\":\"2026-01-26T20:33:28.350Z\"},{\"id\":\"user-574e087d\",\"email\":\"farhan.akhtar@example.com\",\"phone\":null,\"firstName\":\"farhan\",\"lastName\":\"akhtar\",\"kycStatus\":\"pending\",\"createdAt\":\"2026-01-26T20:16:33.857Z\",\"updatedAt\":\"2026-01-26T20:16:33.857Z\"},{\"id\":\"user-2ac62608\",\"email\":\"Vikas.Kumar@example.com\",\"phone\":null,\"firstName\":\"Vikas\",\"lastName\":\"Kumar\",\"kycStatus\":\"pending\",\"createdAt\":\"2026-01-26T20:13:04.198Z\",\"updatedAt\":\"2026-01-26T20:13:04.198Z\"},{\"id\":\"user-bd45fa25\",\"email\":\"newuser@example.com\",\"phone\":null,\"firstName\":\"john\",\"lastName\":\"ibrahim\",\"kycStatus\":\"pending\",\"createdAt\":\"2026-01-26T19:10:20.832Z\",\"updatedAt\":\"2026-01-26T19:10:20.832Z\"},{\"id\":\"user-419a187d\",\"email\":\"biswasjidone@example.com\",\"phone\":null,\"firstName\":\"Biswa\",\"lastName\":\"Ji\",\"kycStatus\":\"pending\",\"createdAt\":\"2026-01-26T15:48:29.680Z\",\"updatedAt\":\"2026-01-26T15:48:29.680Z\"},{\"id\":\"user-52221335\",\"email\":\"biswas@example.com\",\"phone\":null,\"firstName\":\"Biswa\",\"lastName\":\"Ji\",\"kycStatus\":\"pending\",\"createdAt\":\"2026-01-26T12:05:13.354Z\",\"updatedAt\":\"2026-01-26T12:05:13.354Z\"},{\"id\":\"user-8c7ca58f\",\"email\":\"updated_FOKgjDve75mV@test.com\",\"phone\":\"+912883932355\",\"firstName\":\"Ramona\",\"lastName\":\"Botsford\",\"kycStatus\":\"verified\",\"createdAt\":\"2026-01-25T14:48:59.151Z\",\"updatedAt\":\"2026-01-25T14:49:18.472Z\"}],\"meta\":{\"requestId\":\"swagger-6qsdawl2i\",\"timestamp\":\"2026-01-27T15:50:55.054Z\",\"version\":\"v1\",\"pagination\":{\"page\":1,\"limit\":10,\"total\":135,\"totalPages\":14,\"hasNext\":true,\"hasPrev\":false,\"offset\":0}}}\n\n"},{"result":{"nanos":13300,"startTime":1769529052656,"endTime":1769529052656,"millis":0.0133,"status":"passed"},"step":{"line":12,"prefix":"Then","index":3,"text":"status 200"}}],"executorName":"main","line":8,"name":"Get first 10 users details","description":"","durationMillis":798.9788,"startTime":1769529051849,"failed":false,"refId":"[1:8]","endTime":1769529052656,"exampleIndex":-1}],"callDepth":0,"name":"Sample karate test","description":"","resultDate":"2026-01-27 03:50:52 pm","durationMillis":798.9788,"passedCount":1}